{
  "connection": "default",
  "collectionName": "companies",
  "info": {
    "name": "company",
    "description": "Customer companies of 4fo.de."
  },
  "options": {
    "increments": true,
    "timestamps": [
      "created_at",
      "updated_at"
    ],
    "comment": ""
  },
  "attributes": {
    "Cname": {
      "type": "string",
      "unique": true,
      "required": true
    },
    "ContactNo": {
      "type": "string"
    },
    "CompanyEmail": {
      "type": "email"
    },
    "companyaddresses": {
      "collection": "companyaddress"
    },
    "servicebookings": {
      "collection": "servicebooking",
      "via": "Cid"
    },
    "bills": {
      "collection": "bill",
      "via": "company"
    },
    "PhnNo": {
      "type": "string"
    },
    "serviceusers": {
      "collection": "serviceuser",
      "via": "company"
    }
  }
}