{
  "connection": "default",
  "collectionName": "serviceusers",
  "info": {
    "name": "serviceuser",
    "description": ""
  },
  "options": {
    "increments": true,
    "timestamps": [
      "created_at",
      "updated_at"
    ],
    "comment": ""
  },
  "attributes": {
    "Username": {
      "type": "email",
      "unique": true,
      "required": true
    },
    "OtherEmail": {
      "type": "email"
    },
    "ContactNo": {
      "type": "string"
    },
    "userrole": {
      "model": "userrole",
      "via": "serviceusers"
    },
    "FirstName": {
      "type": "string"
    },
    "LastName": {
      "type": "string"
    },
    "company": {
      "model": "company",
      "via": "serviceusers"
    }
  }
}