{
  "routes": [
    {
      "method": "GET",
      "path": "/companyservices",
      "handler": "Companyservice.find",
      "config": {
        "policies": ["global.setUserCtx","global.isAuthenticated"]
      }
    },
    {
      "method": "GET",
      "path": "/companyservices/count",
      "handler": "Companyservice.count",
      "config": {
        "policies": ["global.setUserCtx","global.isAuthenticated"]
      }
    },
    {
      "method": "GET",
      "path": "/companyservices/:id",
      "handler": "Companyservice.findOne",
      "config": {
        "policies": ["global.setUserCtx","global.isAuthenticated"]
      }
    },
    {
      "method": "POST",
      "path": "/companyservices",
      "handler": "Companyservice.create",
      "config": {
        "policies": ["global.setUserCtx","global.isAuthenticated"]
      }
    },
    {
      "method": "PUT",
      "path": "/companyservices/:id",
      "handler": "Companyservice.update",
      "config": {
        "policies": ["global.setUserCtx","global.isAuthenticated"]
      }
    },
    {
      "method": "DELETE",
      "path": "/companyservices/:id",
      "handler": "Companyservice.delete",
      "config": {
        "policies": ["global.setUserCtx","global.isAuthenticated"]
      }
    }
  ]
}
