{
  "connection": "default",
  "collectionName": "bills",
  "info": {
    "name": "bill",
    "description": "Bill of customer company"
  },
  "options": {
    "increments": true,
    "timestamps": [
      "createdAt",
      "updatedAt"
    ],
    "comment": ""
  },
  "attributes": {
    "Date": {
      "type": "date",
      "required": true,
      "default": "2020-01-01T00:00:00.000Z"
    },
    "Status": {
      "type": "string",
      "default": "Unpaid",
      "required": true
    },
    "company": {
      "model": "company",
      "via": "bills"
    }
  }
}